nm;uv
302.88585218321606; 0.309919792185668
302.58400390030175; 0.30157692155905147
303.46056821712284; 0.32261448451751973
304.097546373336; 0.3320171251967067
304.5515722490309; 0.3412458218551069
305.15741319972165; 0.3523105942884768
305.4589913761645; 0.3613614815034062
305.9135392774694; 0.3692218185316186
306.5200530365911; 0.37852299186534655
306.9741544880275; 0.38755358561118425
307.2759339540064; 0.39607684262972775
307.7299192768644; 0.40541183841194206
308.3363040042322; 0.41505123623053286
309.0934300780725; 0.4293412207159877
308.4868195451354; 0.4202937157459068
309.69935674271403; 0.4401813154558416
310.2039311152106; 0.4501702119087907
310.9114552323295; 0.46121887841430986
311.4732041894081; 0.47363654878713113
312.1222707776492; 0.4856193591079859
312.5757067938978; 0.4963942248400448
313.1822850688964; 0.5055262859313414
314.04100572784176; 0.5200323582821252
313.3327360939227; 0.5109378776891468
314.54532490420286; 0.5306901876051364
314.9996973223225; 0.5390105099327621
315.57546281449413; 0.5489543097877295
316.36247540749963; 0.564860524132993
316.06085446624695; 0.5559217341759038
316.90753502886895; 0.5753358196070307
317.4530296715799; 0.5846708153892449
318.0590144005107; 0.5953587091109105
318.53314588120804; 0.6051897674709237
319.13963813503744; 0.6145473115521287
319.54251828124126; 0.6245813046030595
320.1490965562399; 0.6337133656943561
320.9062733211264; 0.6478704762750433
320.6043205839351; 0.6398014064218871
321.563069525862; 0.6586292360792517
322.05739877710033; 0.6688210672231184
322.602583743602; 0.6789678017690035
323.3296647735509; 0.6920570893331952
323.985984789671; 0.704064058545826
324.3892090205518; 0.7131961196371225
325.02626459581734; 0.7223958256253916
325.5004304849824; 0.7321366907894413
326.10696574939647; 0.7413814933756921
326.5102975067388; 0.750231700729603
327.08623074019056; 0.7597358087542486
327.9497434951064; 0.7750066442458057
327.5715191665402; 0.7669738127303134
328.47936078050225; 0.7859820287796047
328.9025333205332; 0.7961287633254899
329.6409734458822; 0.806095111479448
330.2532229736824; 0.8193986078840529
330.90258449164673; 0.8306083336680783
331.3560205078953; 0.8413831994001373
331.9624052352631; 0.851022597218728
332.7195635670419; 0.8652280255829672
332.1130498079202; 0.8559268522492391
333.1727876025519; 0.8765585458258721
333.84458221258404; 0.8860771491855833
334.5373414104373; 0.8977539468772764
334.8819606475788; 0.9082066940523232
335.7485517314802; 0.9211196217065507
336.2933173447817; 0.93236558582824
336.8079992046657; 0.942512320374125
337.3755131161766; 0.9540965089806772
337.86729829133424; 0.9642939771992917
338.32141264594605; 0.9732907484966431
339.86531444735795; 0.9812631827826956
341.6700447226882; 0.9908784217095106
343.49846768577885; 0.995500823002636
345.3276648393928; 0.9980938773865844
347.15802327879163; 0.9976429114067673
348.9899300992371; 0.9931332516085961
350.51684886409043; 0.9885108503154707
351.43507108265226; 0.980308906557547
352.5060453925179; 0.9714868845773746
353.5551780058544; 0.9628057894658952
354.34248552858304; 0.9550942712110226
354.77272900872674; 0.9467063039864242
355.38661048099505; 0.9366948592344843
355.87794619554336; 0.9280814090199774
356.1857815518378; 0.9207306635489585
356.69781395970875; 0.9111701847768356
357.2612096077416; 0.9002342597662706
357.78386563001544; 0.8894787211476325
358.26065731537204; 0.8790106733411276
358.9508804248246; 0.8687793826740269
359.3815368065807; 0.8593090970978675
360.02605901933754; 0.8489368795620739
360.7498780036609; 0.8363098321271947
361.35697855004435; 0.8250356826317669
361.8387659148053; 0.8147987548899184
362.4829956555867; 0.8051931795198137
362.79105896797967; 0.7972449041255372
363.3031214832598; 0.7876055063069463
363.56066886400805; 0.7788116697005125
364.23591783842267; 0.7678531963909567
364.63576143735173; 0.759194649578468
364.94376023386775; 0.7514154864266229
365.5072132293468; 0.7403292394227855
365.9690035396284; 0.7292054119206299
366.3893029726063; 0.7202311889222694
366.75859185221617; 0.711707931903726
367.40213772470196; 0.7038949463033946
367.7330765237474; 0.6930959216795597
368.24916667305945; 0.6824176915146044
368.71045519318716; 0.6726091814535822
369.0944967033242; 0.6653937257765083
369.554903506467; 0.6578964163620489
369.96528899968825; 0.6482570185434581
370.579351116412; 0.6377720595127101
371.0608202028468; 0.6283694188335233
371.8139453706614; 0.6188798061439431
372.4207202654755; 0.6084592708245977
373.08481229423774; 0.6000938518989902
373.64772622372277; 0.5904206316319132
374.1593371278643; 0.5819650195103422
374.92630187293815; 0.5704653870250058
375.54023495790807; 0.5603186524791207
375.97068488885793; 0.5513895260787418
376.7681011278479; 0.5400251833873506
377.3316688182192; 0.5286382923969685
377.94547287143524; 0.5188297823359462
378.42713980655935; 0.5089085307799698
379.07170502990084; 0.4984235717492218
379.839314933744; 0.4852328168395712
380.3923966435832; 0.4746802129118508
380.9339056387854; 0.4589264680169062
381.7848127081901; 0.44949376293906496
382.3475631974535; 0.44024896035281413
382.75756159541316; 0.4316242359888117
383.34103028329156; 0.4213760340974678
383.9851051859683; 0.4121763281091987
384.3957702479896; 0.40180411057340515
385.06089821740443; 0.3907232322121845
385.5223249858399; 0.38055233877452355
386.1355483961634; 0.3722658388953841
386.69872899127313; 0.3618936213595906
387.2101248424916; 0.354001716712791
387.6406779988446; 0.3448020107245219
388.2847658046967; 0.3355684822877665
388.84788188392946; 0.32536537699440427
389.35953579865566; 0.3167970233778791
389.7898825042024; 0.3081384765653905
390.586541756903; 0.2987583841851944
391.26197997788984; 0.28730384829783984
391.763483394644; 0.27869039808333296
392.2745566664778; 0.27164405464869046
392.99760453246256; 0.2610383011590631
393.8736195426742; 0.24924876197241552
394.5737949941911; 0.24148570474842102
395.30944803365617; 0.23210561236822502
396.1063481456306; 0.2220941676162851
396.90293858139563; 0.21289446162801595
397.76053523039604; 0.20369475563974682
398.5568331941857; 0.19526169181716668
399.42422765436424; 0.18703156268550447
400.45461502604627; 0.17798969479017124
401.1809826947273; 0.17010423251451212
402.7055481661646; 0.15895893044188902
404.1953856627; 0.1500040345569491
405.1869148144821; 0.1400183592895703
406.66445742818337; 0.13156274716799943
408.34583580455023; 0.12184443030294045
409.7213917199832; 0.11420055694504039
411.09689602271465; 0.1066919733810856
412.77768085301363; 0.0985294891463957
414.4580699859341; 0.09140422666528525
416.13857094637456; 0.08398583629729384
417.9716820631895; 0.07631941464040293
419.80440608474294; 0.0696676664381004
421.63695806395776; 0.0634668842156152
423.46925197966493; 0.0579425509628555
425.3012448212796; 0.05320740817477576
427.1334097052328; 0.04802129940687894
428.9654025468475; 0.04328615661879942
430.79683625086204; 0.04001665326512516
432.628226944292; 0.036859891406405554
434.4592735530449; 0.03460506150731968
436.2901051088746; 0.03291393908300555
438.12102268587364; 0.03099733366878299
439.9515961781957; 0.02998266021419438
441.7825567657793; 0.02795331330501738
443.61390444862457; 0.02490929294125177
445.4445209515312; 0.023781877991708944
447.2748793909301; 0.02333091201189208
449.1051948197444; 0.02299268752702921
450.93594035440486; 0.021527048092623513
452.76642782555757; 0.020737857627943557
454.59708733904887; 0.019497701183446514
456.4276608313709; 0.018483027728857904
458.2585353977853; 0.01667916380958956
460.0895389959535; 0.014537075405458344
461.9198114141832; 0.01431159241554969
463.750513938259; 0.01295869447609821
465.58117345175026; 0.011718538031601389
467.4115749017338; 0.011154830556829864
469.2420623728865; 0.010365640092149908
471.0723778017008; 0.010027415607287038
472.90286527285355; 0.009238225142607082
474.733610807514; 0.007772585708201607
476.5639692469129; 0.007321619728384521
478.3945857498195; 0.006194204778841472
480.224987199803; 0.00563049730407017
482.05543166037114; 0.004954048334344652
483.88557504684684; 0.005066789829298868
